%YAML 1.1
%TAG !u! tag:unity3d.com,2011:
--- !u!114 &11400000
MonoBehaviour:
  m_ObjectHideFlags: 0
  m_CorrespondingSourceObject: {fileID: 0}
  m_PrefabInstance: {fileID: 0}
  m_PrefabAsset: {fileID: 0}
  m_GameObject: {fileID: 0}
  m_Enabled: 1
  m_EditorHideFlags: 0
  m_Script: {fileID: 11500000, guid: 74e690d3765aba14fad62b4847975767, type: 3}
  m_Name: CrawlRoomEmpty
  m_EditorClassIdentifier: 
  Block: {fileID: 4912432222910529937, guid: 85d525e94d23d994282d31c255dee7de, type: 3}
  Type: 0
