%YAML 1.1
%TAG !u! tag:unity3d.com,2011:
--- !u!114 &11400000
MonoBehaviour:
  m_ObjectHideFlags: 0
  m_CorrespondingSourceObject: {fileID: 0}
  m_PrefabInstance: {fileID: 0}
  m_PrefabAsset: {fileID: 0}
  m_GameObject: {fileID: 0}
  m_Enabled: 1
  m_EditorHideFlags: 0
  m_Script: {fileID: 11500000, guid: a86ff493191791e498ab26b673e6643d, type: 3}
  m_Name: CrawlWall
  m_EditorClassIdentifier: 
  Block: {fileID: 5141235648157863982, guid: c5aefd750b8ba9f44b29a199f4f27f2a, type: 3}
