%YAML 1.1
%TAG !u! tag:unity3d.com,2011:
--- !u!114 &11400000
MonoBehaviour:
  m_ObjectHideFlags: 0
  m_CorrespondingSourceObject: {fileID: 0}
  m_PrefabInstance: {fileID: 0}
  m_PrefabAsset: {fileID: 0}
  m_GameObject: {fileID: 0}
  m_Enabled: 1
  m_EditorHideFlags: 0
  m_Script: {fileID: 11500000, guid: 0c72b64f6383ba14199f040dcb2d7549, type: 3}
  m_Name: CrawlTileEmpty
  m_EditorClassIdentifier: 
  Asset: {fileID: 8801132926253668306, guid: c4b0e5b37881cfd4ca0ca728e086fd6c, type: 3}
