%YAML 1.1
%TAG !u! tag:unity3d.com,2011:
--- !u!114 &11400000
MonoBehaviour:
  m_ObjectHideFlags: 0
  m_CorrespondingSourceObject: {fileID: 0}
  m_PrefabInstance: {fileID: 0}
  m_PrefabAsset: {fileID: 0}
  m_GameObject: {fileID: 0}
  m_Enabled: 1
  m_EditorHideFlags: 0
  m_Script: {fileID: 11500000, guid: 758181630d55a864287b55ff831fa3a4, type: 3}
  m_Name: CrawlLevel1
  m_EditorClassIdentifier: 
  Data: {fileID: 4900000, guid: 92a2dbfa566a76347b42dfcea3cc4ccb, type: 3}
  Blocks: {fileID: 11400000, guid: a6ad2efa26e681647a1f82d636a693d5, type: 2}
