%YAML 1.1
%TAG !u! tag:unity3d.com,2011:
--- !u!114 &11400000
MonoBehaviour:
  m_ObjectHideFlags: 0
  m_CorrespondingSourceObject: {fileID: 0}
  m_PrefabInstance: {fileID: 0}
  m_PrefabAsset: {fileID: 0}
  m_GameObject: {fileID: 0}
  m_Enabled: 1
  m_EditorHideFlags: 0
  m_Script: {fileID: 11500000, guid: bfaf9b9bca47d5446bf6b796155a1b8b, type: 3}
  m_Name: CrawlBlocks2
  m_EditorClassIdentifier: 
  Wall: {fileID: 11400000, guid: c5923aaf277a4104a99526b4bd00d6e7, type: 2}
  Rooms:
  - {fileID: 11400000, guid: fc67722f36442b24f83be74f79c65846, type: 2}
